log_file_name.log
# vsim -vopt work.top -voptargs="+acc=npr" -assertdebug -l log_file_name.log -coverage -c -do "coverage save -onexit -assert -directive -cvg -codeAll ucdb_file_name.ucdb; run -all; exit" 
# Start time: 09:56:43 on Jul 07,2026
# ** Note: (vsim-3812) Design is being optimized...
# //  Questa Sim
# //  Version 10.6c linux Jul 25 2017
# //
# //  Copyright 1991-2017 Mentor Graphics Corporation
# //  All Rights Reserved.
# //
# //  QuestaSim and its associated documentation contain trade
# //  secrets and commercial or financial information that are the property of
# //  Mentor Graphics Corporation and are privileged, confidential,
# //  and exempt from disclosure under the Freedom of Information Act,
# //  5 U.S.C. Section 552. Furthermore, this information
# //  is prohibited from disclosure under the Trade Secrets Act,
# //  18 U.S.C. Section 1905.
# //
# Loading sv_std.std
# Loading work.ram_if(fast)
# Loading work.ram_package(fast)
# Loading work.top_sv_unit(fast)
# Loading work.top(fast)
# Loading work.ram_if(fast)
# Loading work.RAM(fast)
# coverage save -onexit -assert -directive -cvg -codeAll ucdb_file_name.ucdb
#  run -all
# ENV constructor drv_vif=/top/intrf
# ENV build drv_vif=/top/intrf
# DRIVER constructor vif=/top/intrf
# GENERATOR: data_in=e2,write_enb=1,read_enb=1,address=5                   0
# GENERATOR: data_in=d3,write_enb=0,read_enb=1,address=3                   0
# GENERATOR: data_in=1,write_enb=1,read_enb=1,address=c                   0
# GENERATOR: data_in=a8,write_enb=1,read_enb=0,address=17                   0
# GENERATOR: data_in=98,write_enb=1,read_enb=1,address=5                   0
# GENERATOR: data_in=cb,write_enb=0,read_enb=0,address=11                   0
# GENERATOR: data_in=1d,write_enb=0,read_enb=0,address=b                   0
# GENERATOR: data_in=2a,write_enb=1,read_enb=0,address=1e                   0
# GENERATOR: data_in=53,write_enb=1,read_enb=0,address=0                   0
# GENERATOR: data_in=a2,write_enb=1,read_enb=0,address=5                   0
# GENERATOR: data_in=57,write_enb=1,read_enb=1,address=0                   0
# GENERATOR: data_in=42,write_enb=1,read_enb=1,address=17                   0
# GENERATOR: data_in=a7,write_enb=1,read_enb=0,address=11                   0
# GENERATOR: data_in=db,write_enb=1,read_enb=1,address=10                   0
# GENERATOR: data_in=34,write_enb=1,read_enb=0,address=14                   0
# GENERATOR: data_in=a8,write_enb=0,read_enb=0,address=8                   0
# GENERATOR: data_in=68,write_enb=0,read_enb=1,address=c                   0
# GENERATOR: data_in=fe,write_enb=1,read_enb=0,address=2                   0
# GENERATOR: data_in=bc,write_enb=0,read_enb=1,address=4                   0
# GENERATOR: data_in=7d,write_enb=0,read_enb=1,address=11                   0
# GENERATOR: data_in=44,write_enb=1,read_enb=1,address=1a                   0
# GENERATOR: data_in=9,write_enb=1,read_enb=1,address=0                   0
# GENERATOR: data_in=5,write_enb=0,read_enb=1,address=12                   0
# GENERATOR: data_in=5e,write_enb=1,read_enb=1,address=11                   0
# GENERATOR: data_in=c6,write_enb=1,read_enb=1,address=11                   0
# GENERATOR: data_in=c,write_enb=0,read_enb=1,address=15                   0
# GENERATOR: data_in=d0,write_enb=1,read_enb=1,address=18                   0
# GENERATOR: data_in=35,write_enb=1,read_enb=0,address=1e                   0
# GENERATOR: data_in=5f,write_enb=1,read_enb=1,address=8                   0
# GENERATOR: data_in=2c,write_enb=0,read_enb=0,address=15                   0
# GENERATOR: data_in=a3,write_enb=1,read_enb=0,address=5                   0
# GENERATOR: data_in=fc,write_enb=0,read_enb=0,address=3                   0
# Driver start vif=/top/intrf
# DRIVER WRITE OPERATION DRIVING DATA TO INTERFACE data_in=e2,write_enb=1,read_enb=1,address=5                  90
# FUNCTIONAL COVERAGE=60
# MONITOR PASSING DATA TO SCOREBOARD data_out=z                  90
# OUTPUT FUNCTIONAL COVERAGE=0
# SCB MON data_out=x,ADDRESS=x                  90
# MONITOR PASSING DATA TO SCOREBOARD data_out=z                 110
# OUTPUT FUNCTIONAL COVERAGE=0
# REF MODEL DATA IN MEM[5]=e2                 110
# REF MODEL DATA OUT FROM MEM data_out=e2                 110
# SCB REF data_out=e2,ADDRESS=5                 110
# SCB REF data_out=e2,MON data_out=x                 110
# DATA MATCH FAIL.COUNT 1
# SCB MON data_out=x,ADDRESS=x                 110
# DRIVER WRITE OPERATION DRIVING DATA TO INTERFACE data_in=d3,write_enb=0,read_enb=1,address=3                 130
# FUNCTIONAL COVERAGE=77
# MONITOR PASSING DATA TO SCOREBOARD data_out=x                 130
# OUTPUT FUNCTIONAL COVERAGE=0
# MONITOR PASSING DATA TO SCOREBOARD data_out=x                 150
# OUTPUT FUNCTIONAL COVERAGE=0
# REF MODEL DATA OUT FROM MEM data_out=x                 150
# SCB REF data_out=x,ADDRESS=3                 150
# SCB REF data_out=x,MON data_out=x                 150
# DATA MATCH SUCCESS.COUNT =1
# SCB MON data_out=x,ADDRESS=x                 150
# DRIVER WRITE OPERATION DRIVING DATA TO INTERFACE data_in=1,write_enb=1,read_enb=1,address=c                 170
# FUNCTIONAL COVERAGE=77
# MONITOR PASSING DATA TO SCOREBOARD data_out=x                 170
# OUTPUT FUNCTIONAL COVERAGE=0
# MONITOR PASSING DATA TO SCOREBOARD data_out=z                 190
# OUTPUT FUNCTIONAL COVERAGE=0
# REF MODEL DATA IN MEM[c]=1                 190
# REF MODEL DATA OUT FROM MEM data_out=1                 190
# SCB REF data_out=1,ADDRESS=c                 190
# SCB REF data_out=1,MON data_out=x                 190
# DATA MATCH FAIL.COUNT 2
# SCB MON data_out=x,ADDRESS=x                 190
# DRIVER WRITE OPERATION DRIVING DATA TO INTERFACE data_in=a8,write_enb=1,read_enb=0,address=17                 210
# FUNCTIONAL COVERAGE=93
# MONITOR PASSING DATA TO SCOREBOARD data_out=x                 210
# OUTPUT FUNCTIONAL COVERAGE=0
# MONITOR PASSING DATA TO SCOREBOARD data_out=z                 230
# OUTPUT FUNCTIONAL COVERAGE=0
# REF MODEL DATA IN MEM[17]=a8                 230
# SCB REF data_out=x,ADDRESS=17                 230
# SCB REF data_out=x,MON data_out=x                 230
# DATA MATCH SUCCESS.COUNT =2
# SCB MON data_out=x,ADDRESS=x                 230
# DRIVER WRITE OPERATION DRIVING DATA TO INTERFACE data_in=98,write_enb=1,read_enb=1,address=5                 250
# FUNCTIONAL COVERAGE=93
# MONITOR PASSING DATA TO SCOREBOARD data_out=z                 250
# OUTPUT FUNCTIONAL COVERAGE=0
# MONITOR PASSING DATA TO SCOREBOARD data_out=z                 270
# OUTPUT FUNCTIONAL COVERAGE=0
# REF MODEL DATA IN MEM[5]=98                 270
# REF MODEL DATA OUT FROM MEM data_out=98                 270
# SCB REF data_out=98,ADDRESS=5                 270
# SCB REF data_out=98,MON data_out=x                 270
# DATA MATCH FAIL.COUNT 3
# SCB MON data_out=x,ADDRESS=x                 270
# DRIVER WRITE OPERATION DRIVING DATA TO INTERFACE data_in=cb,write_enb=0,read_enb=0,address=11                 290
# FUNCTIONAL COVERAGE=100
# MONITOR PASSING DATA TO SCOREBOARD data_out=x                 290
# OUTPUT FUNCTIONAL COVERAGE=0
# MONITOR PASSING DATA TO SCOREBOARD data_out=z                 310
# OUTPUT FUNCTIONAL COVERAGE=0
# SCB REF data_out=x,ADDRESS=11                 310
# SCB REF data_out=x,MON data_out=x                 310
# DATA MATCH SUCCESS.COUNT =3
# SCB MON data_out=x,ADDRESS=x                 310
# DRIVER WRITE OPERATION DRIVING DATA TO INTERFACE data_in=1d,write_enb=0,read_enb=0,address=b                 330
# FUNCTIONAL COVERAGE=100
# MONITOR PASSING DATA TO SCOREBOARD data_out=z                 330
# OUTPUT FUNCTIONAL COVERAGE=0
# MONITOR PASSING DATA TO SCOREBOARD data_out=z                 350
# OUTPUT FUNCTIONAL COVERAGE=0
# SCB REF data_out=x,ADDRESS=b                 350
# SCB REF data_out=x,MON data_out=x                 350
# DATA MATCH SUCCESS.COUNT =4
# SCB MON data_out=x,ADDRESS=x                 350
# DRIVER WRITE OPERATION DRIVING DATA TO INTERFACE data_in=2a,write_enb=1,read_enb=0,address=1e                 370
# FUNCTIONAL COVERAGE=100
# MONITOR PASSING DATA TO SCOREBOARD data_out=z                 370
# OUTPUT FUNCTIONAL COVERAGE=0
# MONITOR PASSING DATA TO SCOREBOARD data_out=z                 390
# OUTPUT FUNCTIONAL COVERAGE=0
# REF MODEL DATA IN MEM[1e]=2a                 390
# SCB REF data_out=x,ADDRESS=1e                 390
# SCB REF data_out=x,MON data_out=x                 390
# DATA MATCH SUCCESS.COUNT =5
# SCB MON data_out=x,ADDRESS=x                 390
# DRIVER WRITE OPERATION DRIVING DATA TO INTERFACE data_in=53,write_enb=1,read_enb=0,address=0                 410
# FUNCTIONAL COVERAGE=100
# MONITOR PASSING DATA TO SCOREBOARD data_out=z                 410
# OUTPUT FUNCTIONAL COVERAGE=0
# MONITOR PASSING DATA TO SCOREBOARD data_out=z                 430
# OUTPUT FUNCTIONAL COVERAGE=0
# REF MODEL DATA IN MEM[0]=53                 430
# SCB REF data_out=x,ADDRESS=0                 430
# SCB REF data_out=x,MON data_out=x                 430
# DATA MATCH SUCCESS.COUNT =6
# SCB MON data_out=x,ADDRESS=x                 430
# DRIVER WRITE OPERATION DRIVING DATA TO INTERFACE data_in=a2,write_enb=1,read_enb=0,address=5                 450
# FUNCTIONAL COVERAGE=100
# MONITOR PASSING DATA TO SCOREBOARD data_out=z                 450
# OUTPUT FUNCTIONAL COVERAGE=0
# MONITOR PASSING DATA TO SCOREBOARD data_out=z                 470
# OUTPUT FUNCTIONAL COVERAGE=0
# REF MODEL DATA IN MEM[5]=a2                 470
# SCB REF data_out=x,ADDRESS=5                 470
# SCB REF data_out=x,MON data_out=x                 470
# DATA MATCH SUCCESS.COUNT =7
# SCB MON data_out=x,ADDRESS=x                 470
# DRIVER WRITE OPERATION DRIVING DATA TO INTERFACE data_in=57,write_enb=1,read_enb=1,address=0                 490
# FUNCTIONAL COVERAGE=100
# MONITOR PASSING DATA TO SCOREBOARD data_out=z                 490
# OUTPUT FUNCTIONAL COVERAGE=0
# MONITOR PASSING DATA TO SCOREBOARD data_out=z                 510
# OUTPUT FUNCTIONAL COVERAGE=0
# REF MODEL DATA IN MEM[0]=57                 510
# REF MODEL DATA OUT FROM MEM data_out=57                 510
# SCB REF data_out=57,ADDRESS=0                 510
# SCB REF data_out=57,MON data_out=x                 510
# DATA MATCH FAIL.COUNT 4
# SCB MON data_out=x,ADDRESS=x                 510
# DRIVER WRITE OPERATION DRIVING DATA TO INTERFACE data_in=42,write_enb=1,read_enb=1,address=17                 530
# FUNCTIONAL COVERAGE=100
# MONITOR PASSING DATA TO SCOREBOARD data_out=53                 530
# OUTPUT FUNCTIONAL COVERAGE=100
# MONITOR PASSING DATA TO SCOREBOARD data_out=z                 550
# OUTPUT FUNCTIONAL COVERAGE=100
# REF MODEL DATA IN MEM[17]=42                 550
# REF MODEL DATA OUT FROM MEM data_out=42                 550
# SCB REF data_out=42,ADDRESS=17                 550
# SCB REF data_out=42,MON data_out=x                 550
# DATA MATCH FAIL.COUNT 5
# SCB MON data_out=x,ADDRESS=x                 550
# DRIVER WRITE OPERATION DRIVING DATA TO INTERFACE data_in=a7,write_enb=1,read_enb=0,address=11                 570
# FUNCTIONAL COVERAGE=100
# MONITOR PASSING DATA TO SCOREBOARD data_out=a8                 570
# OUTPUT FUNCTIONAL COVERAGE=100
# MONITOR PASSING DATA TO SCOREBOARD data_out=z                 590
# OUTPUT FUNCTIONAL COVERAGE=100
# REF MODEL DATA IN MEM[11]=a7                 590
# SCB REF data_out=x,ADDRESS=11                 590
# SCB REF data_out=x,MON data_out=x                 590
# DATA MATCH SUCCESS.COUNT =8
# SCB MON data_out=x,ADDRESS=x                 590
# DRIVER WRITE OPERATION DRIVING DATA TO INTERFACE data_in=db,write_enb=1,read_enb=1,address=10                 610
# FUNCTIONAL COVERAGE=100
# MONITOR PASSING DATA TO SCOREBOARD data_out=z                 610
# OUTPUT FUNCTIONAL COVERAGE=100
# MONITOR PASSING DATA TO SCOREBOARD data_out=z                 630
# OUTPUT FUNCTIONAL COVERAGE=100
# REF MODEL DATA IN MEM[10]=db                 630
# REF MODEL DATA OUT FROM MEM data_out=db                 630
# SCB REF data_out=db,ADDRESS=10                 630
# SCB REF data_out=db,MON data_out=x                 630
# DATA MATCH FAIL.COUNT 6
# SCB MON data_out=x,ADDRESS=x                 630
# DRIVER WRITE OPERATION DRIVING DATA TO INTERFACE data_in=34,write_enb=1,read_enb=0,address=14                 650
# FUNCTIONAL COVERAGE=100
# MONITOR PASSING DATA TO SCOREBOARD data_out=x                 650
# OUTPUT FUNCTIONAL COVERAGE=100
# MONITOR PASSING DATA TO SCOREBOARD data_out=z                 670
# OUTPUT FUNCTIONAL COVERAGE=100
# REF MODEL DATA IN MEM[14]=34                 670
# SCB REF data_out=x,ADDRESS=14                 670
# SCB REF data_out=x,MON data_out=x                 670
# DATA MATCH SUCCESS.COUNT =9
# SCB MON data_out=x,ADDRESS=x                 670
# DRIVER WRITE OPERATION DRIVING DATA TO INTERFACE data_in=a8,write_enb=0,read_enb=0,address=8                 690
# FUNCTIONAL COVERAGE=100
# MONITOR PASSING DATA TO SCOREBOARD data_out=z                 690
# OUTPUT FUNCTIONAL COVERAGE=100
# MONITOR PASSING DATA TO SCOREBOARD data_out=z                 710
# OUTPUT FUNCTIONAL COVERAGE=100
# SCB REF data_out=x,ADDRESS=8                 710
# SCB REF data_out=x,MON data_out=x                 710
# DATA MATCH SUCCESS.COUNT =10
# SCB MON data_out=x,ADDRESS=x                 710
# DRIVER WRITE OPERATION DRIVING DATA TO INTERFACE data_in=68,write_enb=0,read_enb=1,address=c                 730
# FUNCTIONAL COVERAGE=100
# REF MODEL DATA OUT FROM MEM data_out=1                 750
# SCB REF data_out=1,ADDRESS=c                 750
# SCB REF data_out=1,MON data_out=x                 750
# DATA MATCH FAIL.COUNT 7
# SCB MON data_out=x,ADDRESS=x                 750
# DRIVER WRITE OPERATION DRIVING DATA TO INTERFACE data_in=fe,write_enb=1,read_enb=0,address=2                 770
# FUNCTIONAL COVERAGE=100
# REF MODEL DATA IN MEM[2]=fe                 790
# SCB REF data_out=x,ADDRESS=2                 790
# SCB REF data_out=x,MON data_out=x                 790
# DATA MATCH SUCCESS.COUNT =11
# SCB MON data_out=x,ADDRESS=x                 790
# DRIVER WRITE OPERATION DRIVING DATA TO INTERFACE data_in=bc,write_enb=0,read_enb=1,address=4                 810
# FUNCTIONAL COVERAGE=100
# REF MODEL DATA OUT FROM MEM data_out=x                 830
# SCB REF data_out=x,ADDRESS=4                 830
# SCB REF data_out=x,MON data_out=x                 830
# DATA MATCH SUCCESS.COUNT =12
# SCB MON data_out=x,ADDRESS=x                 830
# DRIVER WRITE OPERATION DRIVING DATA TO INTERFACE data_in=7d,write_enb=0,read_enb=1,address=11                 850
# FUNCTIONAL COVERAGE=100
# REF MODEL DATA OUT FROM MEM data_out=a7                 870
# SCB REF data_out=a7,ADDRESS=11                 870
# SCB REF data_out=a7,MON data_out=x                 870
# DATA MATCH FAIL.COUNT 8
# SCB MON data_out=x,ADDRESS=x                 870
# DRIVER WRITE OPERATION DRIVING DATA TO INTERFACE data_in=44,write_enb=1,read_enb=1,address=1a                 890
# FUNCTIONAL COVERAGE=100
# REF MODEL DATA IN MEM[1a]=44                 910
# REF MODEL DATA OUT FROM MEM data_out=44                 910
# SCB REF data_out=44,ADDRESS=1a                 910
# SCB REF data_out=44,MON data_out=x                 910
# DATA MATCH FAIL.COUNT 9
# SCB MON data_out=x,ADDRESS=x                 910
# DRIVER WRITE OPERATION DRIVING DATA TO INTERFACE data_in=9,write_enb=1,read_enb=1,address=0                 930
# FUNCTIONAL COVERAGE=100
# REF MODEL DATA IN MEM[0]=9                 950
# REF MODEL DATA OUT FROM MEM data_out=9                 950
# SCB REF data_out=9,ADDRESS=0                 950
# SCB REF data_out=9,MON data_out=x                 950
# DATA MATCH FAIL.COUNT 10
# SCB MON data_out=x,ADDRESS=x                 950
# DRIVER WRITE OPERATION DRIVING DATA TO INTERFACE data_in=5,write_enb=0,read_enb=1,address=12                 970
# FUNCTIONAL COVERAGE=100
# REF MODEL DATA OUT FROM MEM data_out=x                 990
# SCB REF data_out=x,ADDRESS=12                 990
# SCB REF data_out=x,MON data_out=x                 990
# DATA MATCH SUCCESS.COUNT =13
# SCB MON data_out=x,ADDRESS=x                 990
# DRIVER WRITE OPERATION DRIVING DATA TO INTERFACE data_in=5e,write_enb=1,read_enb=1,address=11                1010
# FUNCTIONAL COVERAGE=100
# REF MODEL DATA IN MEM[11]=5e                1030
# REF MODEL DATA OUT FROM MEM data_out=5e                1030
# SCB REF data_out=5e,ADDRESS=11                1030
# SCB REF data_out=5e,MON data_out=x                1030
# DATA MATCH FAIL.COUNT 11
# SCB MON data_out=x,ADDRESS=x                1030
# DRIVER WRITE OPERATION DRIVING DATA TO INTERFACE data_in=c6,write_enb=1,read_enb=1,address=11                1050
# FUNCTIONAL COVERAGE=100
# REF MODEL DATA IN MEM[11]=c6                1070
# REF MODEL DATA OUT FROM MEM data_out=c6                1070
# SCB REF data_out=c6,ADDRESS=11                1070
# SCB REF data_out=c6,MON data_out=x                1070
# DATA MATCH FAIL.COUNT 12
# SCB MON data_out=x,ADDRESS=x                1070
# DRIVER WRITE OPERATION DRIVING DATA TO INTERFACE data_in=c,write_enb=0,read_enb=1,address=15                1090
# FUNCTIONAL COVERAGE=100
# REF MODEL DATA OUT FROM MEM data_out=x                1110
# SCB REF data_out=x,ADDRESS=15                1110
# SCB REF data_out=x,MON data_out=x                1110
# DATA MATCH SUCCESS.COUNT =14
# SCB MON data_out=x,ADDRESS=x                1110
# DRIVER WRITE OPERATION DRIVING DATA TO INTERFACE data_in=d0,write_enb=1,read_enb=1,address=18                1130
# FUNCTIONAL COVERAGE=100
# REF MODEL DATA IN MEM[18]=d0                1150
# REF MODEL DATA OUT FROM MEM data_out=d0                1150
# SCB REF data_out=d0,ADDRESS=18                1150
# SCB REF data_out=d0,MON data_out=x                1150
# DATA MATCH FAIL.COUNT 13
# SCB MON data_out=x,ADDRESS=x                1150
# DRIVER WRITE OPERATION DRIVING DATA TO INTERFACE data_in=35,write_enb=1,read_enb=0,address=1e                1170
# FUNCTIONAL COVERAGE=100
# REF MODEL DATA IN MEM[1e]=35                1190
# SCB REF data_out=x,ADDRESS=1e                1190
# SCB REF data_out=x,MON data_out=x                1190
# DATA MATCH SUCCESS.COUNT =15
# SCB MON data_out=x,ADDRESS=x                1190
# DRIVER WRITE OPERATION DRIVING DATA TO INTERFACE data_in=5f,write_enb=1,read_enb=1,address=8                1210
# FUNCTIONAL COVERAGE=100
# REF MODEL DATA IN MEM[8]=5f                1230
# REF MODEL DATA OUT FROM MEM data_out=5f                1230
# SCB REF data_out=5f,ADDRESS=8                1230
# SCB REF data_out=5f,MON data_out=x                1230
# DATA MATCH FAIL.COUNT 14
# SCB MON data_out=x,ADDRESS=x                1230
# DRIVER WRITE OPERATION DRIVING DATA TO INTERFACE data_in=2c,write_enb=0,read_enb=0,address=15                1250
# FUNCTIONAL COVERAGE=100
# SCB REF data_out=x,ADDRESS=15                1270
# SCB REF data_out=x,MON data_out=x                1270
# DATA MATCH SUCCESS.COUNT =16
# SCB MON data_out=x,ADDRESS=x                1270
# DRIVER WRITE OPERATION DRIVING DATA TO INTERFACE data_in=a3,write_enb=1,read_enb=0,address=5                1290
# FUNCTIONAL COVERAGE=100
# REF MODEL DATA IN MEM[5]=a3                1310
# SCB REF data_out=x,ADDRESS=5                1310
# SCB REF data_out=x,MON data_out=x                1310
# DATA MATCH SUCCESS.COUNT =17
# SCB MON data_out=x,ADDRESS=x                1310
# DRIVER WRITE OPERATION DRIVING DATA TO INTERFACE data_in=fc,write_enb=0,read_enb=0,address=3                1330
# FUNCTIONAL COVERAGE=100
# SCB REF data_out=x,ADDRESS=3                1350
# SCB REF data_out=x,MON data_out=x                1350
# DATA MATCH SUCCESS.COUNT =18
# GENERATOR: data_in=c9,write_enb=0,read_enb=1,address=4                1350
# GENERATOR: data_in=96,write_enb=0,read_enb=1,address=1                1350
# GENERATOR: data_in=87,write_enb=0,read_enb=1,address=1                1350
# GENERATOR: data_in=3b,write_enb=0,read_enb=1,address=1f                1350
# GENERATOR: data_in=40,write_enb=0,read_enb=1,address=16                1350
# GENERATOR: data_in=59,write_enb=0,read_enb=1,address=6                1350
# GENERATOR: data_in=30,write_enb=0,read_enb=1,address=15                1350
# GENERATOR: data_in=5f,write_enb=0,read_enb=1,address=17                1350
# GENERATOR: data_in=fb,write_enb=0,read_enb=1,address=13                1350
# GENERATOR: data_in=36,write_enb=0,read_enb=1,address=3                1350
# GENERATOR: data_in=2b,write_enb=0,read_enb=1,address=6                1350
# GENERATOR: data_in=cb,write_enb=0,read_enb=1,address=c                1350
# GENERATOR: data_in=79,write_enb=0,read_enb=1,address=a                1350
# GENERATOR: data_in=9c,write_enb=0,read_enb=1,address=7                1350
# GENERATOR: data_in=b0,write_enb=0,read_enb=1,address=10                1350
# GENERATOR: data_in=2f,write_enb=0,read_enb=1,address=1c                1350
# GENERATOR: data_in=d0,write_enb=0,read_enb=1,address=1                1350
# GENERATOR: data_in=45,write_enb=0,read_enb=1,address=1d                1350
# GENERATOR: data_in=77,write_enb=0,read_enb=1,address=1f                1350
# GENERATOR: data_in=e,write_enb=0,read_enb=1,address=d                1350
# GENERATOR: data_in=77,write_enb=0,read_enb=1,address=f                1350
# GENERATOR: data_in=7b,write_enb=0,read_enb=1,address=12                1350
# GENERATOR: data_in=40,write_enb=0,read_enb=1,address=19                1350
# GENERATOR: data_in=99,write_enb=0,read_enb=1,address=b                1350
# GENERATOR: data_in=5f,write_enb=0,read_enb=1,address=17                1350
# GENERATOR: data_in=55,write_enb=0,read_enb=1,address=4                1350
# GENERATOR: data_in=36,write_enb=0,read_enb=1,address=a                1350
# GENERATOR: data_in=5b,write_enb=0,read_enb=1,address=2                1350
# GENERATOR: data_in=b8,write_enb=0,read_enb=1,address=a                1350
# GENERATOR: data_in=2f,write_enb=0,read_enb=1,address=12                1350
# GENERATOR: data_in=b9,write_enb=0,read_enb=1,address=9                1350
# GENERATOR: data_in=8b,write_enb=0,read_enb=1,address=13                1350
# Driver start vif=/top/intrf
# DRIVER WRITE OPERATION DRIVING DATA TO INTERFACE data_in=c9,write_enb=0,read_enb=1,address=4                1450
# FUNCTIONAL COVERAGE=100
# MONITOR PASSING DATA TO SCOREBOARD data_out=z                1450
# OUTPUT FUNCTIONAL COVERAGE=100
# SCB MON data_out=x,ADDRESS=x                1450
# MONITOR PASSING DATA TO SCOREBOARD data_out=x                1470
# OUTPUT FUNCTIONAL COVERAGE=100
# REF MODEL DATA OUT FROM MEM data_out=x                1470
# SCB REF data_out=x,ADDRESS=4                1470
# SCB REF data_out=x,MON data_out=x                1470
# DATA MATCH SUCCESS.COUNT =19
# SCB MON data_out=x,ADDRESS=x                1470
# DRIVER WRITE OPERATION DRIVING DATA TO INTERFACE data_in=96,write_enb=0,read_enb=1,address=1                1490
# FUNCTIONAL COVERAGE=100
# MONITOR PASSING DATA TO SCOREBOARD data_out=x                1490
# OUTPUT FUNCTIONAL COVERAGE=100
# MONITOR PASSING DATA TO SCOREBOARD data_out=x                1510
# OUTPUT FUNCTIONAL COVERAGE=100
# REF MODEL DATA OUT FROM MEM data_out=x                1510
# SCB REF data_out=x,ADDRESS=1                1510
# SCB REF data_out=x,MON data_out=x                1510
# DATA MATCH SUCCESS.COUNT =20
# SCB MON data_out=x,ADDRESS=x                1510
# DRIVER WRITE OPERATION DRIVING DATA TO INTERFACE data_in=87,write_enb=0,read_enb=1,address=1                1530
# FUNCTIONAL COVERAGE=100
# MONITOR PASSING DATA TO SCOREBOARD data_out=x                1530
# OUTPUT FUNCTIONAL COVERAGE=100
# MONITOR PASSING DATA TO SCOREBOARD data_out=x                1550
# OUTPUT FUNCTIONAL COVERAGE=100
# REF MODEL DATA OUT FROM MEM data_out=x                1550
# SCB REF data_out=x,ADDRESS=1                1550
# SCB REF data_out=x,MON data_out=x                1550
# DATA MATCH SUCCESS.COUNT =21
# SCB MON data_out=x,ADDRESS=x                1550
# DRIVER WRITE OPERATION DRIVING DATA TO INTERFACE data_in=3b,write_enb=0,read_enb=1,address=1f                1570
# FUNCTIONAL COVERAGE=100
# MONITOR PASSING DATA TO SCOREBOARD data_out=x                1570
# OUTPUT FUNCTIONAL COVERAGE=100
# MONITOR PASSING DATA TO SCOREBOARD data_out=x                1590
# OUTPUT FUNCTIONAL COVERAGE=100
# REF MODEL DATA OUT FROM MEM data_out=x                1590
# SCB REF data_out=x,ADDRESS=1f                1590
# SCB REF data_out=x,MON data_out=x                1590
# DATA MATCH SUCCESS.COUNT =22
# SCB MON data_out=x,ADDRESS=x                1590
# DRIVER WRITE OPERATION DRIVING DATA TO INTERFACE data_in=40,write_enb=0,read_enb=1,address=16                1610
# FUNCTIONAL COVERAGE=100
# MONITOR PASSING DATA TO SCOREBOARD data_out=x                1610
# OUTPUT FUNCTIONAL COVERAGE=100
# MONITOR PASSING DATA TO SCOREBOARD data_out=x                1630
# OUTPUT FUNCTIONAL COVERAGE=100
# REF MODEL DATA OUT FROM MEM data_out=x                1630
# SCB REF data_out=x,ADDRESS=16                1630
# SCB REF data_out=x,MON data_out=x                1630
# DATA MATCH SUCCESS.COUNT =23
# SCB MON data_out=x,ADDRESS=x                1630
# DRIVER WRITE OPERATION DRIVING DATA TO INTERFACE data_in=59,write_enb=0,read_enb=1,address=6                1650
# FUNCTIONAL COVERAGE=100
# MONITOR PASSING DATA TO SCOREBOARD data_out=x                1650
# OUTPUT FUNCTIONAL COVERAGE=100
# MONITOR PASSING DATA TO SCOREBOARD data_out=x                1670
# OUTPUT FUNCTIONAL COVERAGE=100
# REF MODEL DATA OUT FROM MEM data_out=x                1670
# SCB REF data_out=x,ADDRESS=6                1670
# SCB REF data_out=x,MON data_out=x                1670
# DATA MATCH SUCCESS.COUNT =24
# SCB MON data_out=x,ADDRESS=x                1670
# DRIVER WRITE OPERATION DRIVING DATA TO INTERFACE data_in=30,write_enb=0,read_enb=1,address=15                1690
# FUNCTIONAL COVERAGE=100
# MONITOR PASSING DATA TO SCOREBOARD data_out=x                1690
# OUTPUT FUNCTIONAL COVERAGE=100
# MONITOR PASSING DATA TO SCOREBOARD data_out=x                1710
# OUTPUT FUNCTIONAL COVERAGE=100
# REF MODEL DATA OUT FROM MEM data_out=x                1710
# SCB REF data_out=x,ADDRESS=15                1710
# SCB REF data_out=x,MON data_out=x                1710
# DATA MATCH SUCCESS.COUNT =25
# SCB MON data_out=x,ADDRESS=x                1710
# DRIVER WRITE OPERATION DRIVING DATA TO INTERFACE data_in=5f,write_enb=0,read_enb=1,address=17                1730
# FUNCTIONAL COVERAGE=100
# MONITOR PASSING DATA TO SCOREBOARD data_out=x                1730
# OUTPUT FUNCTIONAL COVERAGE=100
# MONITOR PASSING DATA TO SCOREBOARD data_out=a8                1750
# OUTPUT FUNCTIONAL COVERAGE=100
# REF MODEL DATA OUT FROM MEM data_out=42                1750
# SCB REF data_out=42,ADDRESS=17                1750
# SCB REF data_out=42,MON data_out=x                1750
# DATA MATCH FAIL.COUNT 15
# SCB MON data_out=x,ADDRESS=x                1750
# DRIVER WRITE OPERATION DRIVING DATA TO INTERFACE data_in=fb,write_enb=0,read_enb=1,address=13                1770
# FUNCTIONAL COVERAGE=100
# MONITOR PASSING DATA TO SCOREBOARD data_out=a8                1770
# OUTPUT FUNCTIONAL COVERAGE=100
# MONITOR PASSING DATA TO SCOREBOARD data_out=x                1790
# OUTPUT FUNCTIONAL COVERAGE=100
# REF MODEL DATA OUT FROM MEM data_out=x                1790
# SCB REF data_out=x,ADDRESS=13                1790
# SCB REF data_out=x,MON data_out=x                1790
# DATA MATCH SUCCESS.COUNT =26
# SCB MON data_out=x,ADDRESS=x                1790
# DRIVER WRITE OPERATION DRIVING DATA TO INTERFACE data_in=36,write_enb=0,read_enb=1,address=3                1810
# FUNCTIONAL COVERAGE=100
# MONITOR PASSING DATA TO SCOREBOARD data_out=x                1810
# OUTPUT FUNCTIONAL COVERAGE=100
# MONITOR PASSING DATA TO SCOREBOARD data_out=x                1830
# OUTPUT FUNCTIONAL COVERAGE=100
# REF MODEL DATA OUT FROM MEM data_out=x                1830
# SCB REF data_out=x,ADDRESS=3                1830
# SCB REF data_out=x,MON data_out=x                1830
# DATA MATCH SUCCESS.COUNT =27
# SCB MON data_out=x,ADDRESS=x                1830
# DRIVER WRITE OPERATION DRIVING DATA TO INTERFACE data_in=2b,write_enb=0,read_enb=1,address=6                1850
# FUNCTIONAL COVERAGE=100
# MONITOR PASSING DATA TO SCOREBOARD data_out=x                1850
# OUTPUT FUNCTIONAL COVERAGE=100
# MONITOR PASSING DATA TO SCOREBOARD data_out=x                1870
# OUTPUT FUNCTIONAL COVERAGE=100
# REF MODEL DATA OUT FROM MEM data_out=x                1870
# SCB REF data_out=x,ADDRESS=6                1870
# SCB REF data_out=x,MON data_out=x                1870
# DATA MATCH SUCCESS.COUNT =28
# SCB MON data_out=x,ADDRESS=x                1870
# DRIVER WRITE OPERATION DRIVING DATA TO INTERFACE data_in=cb,write_enb=0,read_enb=1,address=c                1890
# FUNCTIONAL COVERAGE=100
# MONITOR PASSING DATA TO SCOREBOARD data_out=x                1890
# OUTPUT FUNCTIONAL COVERAGE=100
# MONITOR PASSING DATA TO SCOREBOARD data_out=x                1910
# OUTPUT FUNCTIONAL COVERAGE=100
# REF MODEL DATA OUT FROM MEM data_out=1                1910
# SCB REF data_out=1,ADDRESS=c                1910
# SCB REF data_out=1,MON data_out=x                1910
# DATA MATCH FAIL.COUNT 16
# SCB MON data_out=x,ADDRESS=x                1910
